argh==0.26.2
astroid==2.2.5
Django==2.2.3
isort==4.3.21
lazy-object-proxy==1.4.1
mccabe==0.6.1
pathtools==0.1.2
pkg-resources==0.0.0
ply==3.11
pyasn1==0.4.5
pycryptodomex==3.8.2
pylint==2.3.1
pysmi==0.3.4
pysnmp==4.4.9
pysnmp-mibs==0.1.6
pytz==2019.1
PyYAML==5.1.2
six==1.12.0
sqlparse==0.3.0
typed-ast==1.4.0
watchdog==0.9.0
wrapt==1.11.2
